<?xml version="1.0"?>
<robot xmlns:xacro="http://wiki.ros.org/xacro">

	<xacro:macro name="poppy_ros2_control_joint" params="joint">
		<joint name="${joint}">
			<command_interface name="position" />
			<state_interface name="position">
				<param name="initial_value">0</param>
			</state_interface>
		</joint>
	</xacro:macro>

</robot>
